{
  "about": {
    "datasetID": "multivariate_dataset_1",
    "datasetName": "A test dataset based on Synthetic Gaussian Process dataset",
    "license": "Unknown",
    "datasetSchemaVersion": "3.2.0",
    "redacted": false,
    "datasetVersion": "1.0",
    "digest": "9a470a2805be45109036f4c02c0822f5c97b7c2794340dec49153dc24ce1632e"
  },
  "dataResources": [
    {
      "resID": "0",
      "resPath": "tables/gp_data_tables/",
      "resType": "table",
      "resFormat": [
        "text/csv"
      ],
      "isCollection": true,
      "columns": [
        {
          "colIndex": 0,
          "colName": "x",
          "colType": "real",
          "role": [
            "attribute"
          ]
        },
        {
          "colIndex": 1,
          "colName": "y",
          "colType": "real",
          "role": [
            "attribute"
          ]
        }
      ]
    },
    {
      "resID": "learningData",
      "resPath": "tables/learningData.csv",
      "resType": "table",
      "resFormat": [
        "text/csv"
      ],
      "isCollection": false,
      "columns": [
        {
          "colIndex": 0,
          "colName": "d3mIndex",
          "colType": "integer",
          "role": [
            "index"
          ]
        },
        {
          "colIndex": 1,
          "colName": "gpDataFile",
          "colType": "string",
          "role": [
            "attribute"
          ],
          "refersTo": {
            "resID": "0",
            "resObject": "item"
          }
        },
        {
          "colIndex": 2,
          "colName": "amplitude",
          "colType": "real",
          "role": [
            "suggestedTarget"
          ]
        },
        {
          "colIndex": 3,
          "colName": "lengthscale",
          "colType": "real",
          "role": [
            "suggestedTarget"
          ]
        }
      ]
    }
  ]
}