{
  "about": {
    "datasetID": "timeseries_dataset_2",
    "datasetName": "Test of timeseries classification dataset",
    "description": "Based on 66_chlorineConcentration",
    "datasetSchemaVersion": "3.3.0",
    "redacted": false,
    "datasetVersion": "1.0",
    "digest": "2ad50931f8917bab0af59bf95c745c96dc93eca3fe3867439ddf14fb516b8d1e"
  },
  "dataResources": [
    {
      "resID": "0",
      "resPath": "timeseries/",
      "resType": "timeseries",
      "resFormat": [
        "text/csv"
      ],
      "isCollection": true,
      "columns": [
        {
          "colIndex": 0,
          "colName": "time",
          "colType": "integer",
          "role": [
            "timeIndicator"
          ]
        },
        {
          "colIndex": 1,
          "colName": "value",
          "colType": "real",
          "role": [
            "attribute"
          ]
        }
      ]
    },
    {
      "resID": "learningData",
      "resPath": "tables/learningData.csv",
      "resType": "table",
      "resFormat": [
        "text/csv"
      ],
      "isCollection": false,
      "columns": [
        {
          "colIndex": 0,
          "colName": "d3mIndex",
          "colType": "integer",
          "role": [
            "index"
          ]
        },
        {
          "colIndex": 1,
          "colName": "timeseries_file",
          "colType": "string",
          "role": [
            "attribute"
          ],
          "refersTo": {
            "resID": "0",
            "resObject": "item"
          }
        },
        {
          "colIndex": 2,
          "colName": "label",
          "colType": "categorical",
          "role": [
            "suggestedTarget"
          ]
        }
      ]
    }
  ]
}